correlaid_text_analysis
…
Most common sentiment words

## # A tibble: 79 x 3
##    word           sentiment     n
##    <chr>          <chr>     <int>
##  1 significant    positive     15
##  2 correct        positive      7
##  3 misconceptions negative      7
##  4 fall           negative      6
##  5 error          negative      4
##  6 false          negative      4
##  7 happy          positive      4
##  8 plot           negative      4
##  9 confusing      negative      3
## 10 deviation      negative      3
## # ... with 69 more rows
…
tf-idf function

## # A tibble: 960 x 6
##    article word           n     tf   idf tf_idf
##    <chr>   <chr>      <int>  <dbl> <dbl>  <dbl>
##  1 doc2    block         53 0.0742  1.10 0.0815
##  2 doc2    proof         31 0.0434  1.10 0.0477
##  3 doc1    true          38 0.0432  1.10 0.0475
##  4 doc2    blockchain    26 0.0364  1.10 0.0400
##  5 doc1    hypothesis    30 0.0341  1.10 0.0375
##  6 doc1    difference    28 0.0319  1.10 0.0350
##  7 doc2    hash          22 0.0308  1.10 0.0339
##  8 doc1    model         26 0.0296  1.10 0.0325
##  9 doc2    previous      21 0.0294  1.10 0.0323
## 10 doc3    wave          14 0.0264  1.10 0.0290
## # ... with 950 more rows
…
